{
  "AWSTemplateFormatVersion": "2010-09-09",
  "Description": "The AWS CloudFormation template for this Serverless application",
  "Resources": {
    "ServerlessDeploymentBucket": {
      "Type": "AWS::S3::Bucket"
    },
    "WebAppS3Bucket": {
      "Type": "AWS::S3::Bucket",
      "Properties": {
        "BucketName": "hostbrowsers3upload",
        "AccessControl": "PublicRead",
        "WebsiteConfiguration": {
          "IndexDocument": "index.html",
          "ErrorDocument": "index.html"
        }
      }
    },
    "WebAppS3BucketPolicy": {
      "Type": "AWS::S3::BucketPolicy",
      "Properties": {
        "Bucket": {
          "Ref": "WebAppS3Bucket"
        },
        "PolicyDocument": {
          "Statement": [
            {
              "Sid": "PublicReadGetObject",
              "Effect": "Allow",
              "Principal": "*",
              "Action": [
                "s3:GetObject"
              ],
              "Resource": "arn:aws:s3:::hostbrowsers3upload/*"
            }
          ]
        }
      }
    },
    "WebAppCloudFrontDistribution": {
      "Type": "AWS::CloudFront::Distribution",
      "Properties": {
        "DistributionConfig": {
          "Origins": [
            {
              "DomainName": "hostbrowsers3upload.s3.amazonaws.com",
              "Id": "WebApp",
              "CustomOriginConfig": {
                "HTTPPort": 80,
                "HTTPSPort": 443,
                "OriginProtocolPolicy": "https-only"
              }
            }
          ],
          "Enabled": "true",
          "DefaultRootObject": "index.html",
          "CustomErrorResponses": [
            {
              "ErrorCode": 404,
              "ResponseCode": 200,
              "ResponsePagePath": "/index.html"
            }
          ],
          "DefaultCacheBehavior": {
            "AllowedMethods": [
              "DELETE",
              "GET",
              "HEAD",
              "OPTIONS",
              "PATCH",
              "POST",
              "PUT"
            ],
            "TargetOriginId": "WebApp",
            "ForwardedValues": {
              "QueryString": "false",
              "Cookies": {
                "Forward": "none"
              }
            },
            "ViewerProtocolPolicy": "redirect-to-https"
          },
          "ViewerCertificate": {
            "CloudFrontDefaultCertificate": "true"
          }
        }
      }
    }
  },
  "Outputs": {
    "ServerlessDeploymentBucketName": {
      "Value": {
        "Ref": "ServerlessDeploymentBucket"
      }
    },
    "WebAppCloudFrontDistributionOutput": {
      "Value": {
        "Fn::GetAtt": [
          "WebAppCloudFrontDistribution",
          "DomainName"
        ]
      }
    }
  }
}